{
    "tests" : ["power_on", "delay10", "program_profile1", "delay30", "power_profile1", "delay10", "program_profile2", "delay30", "power_profile2", "delay10", "program_profile3", "delay30", "power_profile3", "delay10", "power_off", "dataprocessing1", "dataprocessing2", "dataprocessing3", "report1", "report2", "report3"],
    "program_profile1" : [{"location" : ".\\modules\\nfc\\src\\NFC_Tester.py", "config" : ".\\config\\nfc\\config.json", "assertions" : ".\\config\\nfc\\profile1.txt"}],
    "program_profile2" : [{"location" : ".\\modules\\nfc\\src\\NFC_Tester.py", "config" : ".\\config\\nfc\\config.json", "assertions" : ".\\config\\nfc\\profile2.txt"}],
    "program_profile3" : [{"location" : ".\\modules\\nfc\\src\\NFC_Tester.py", "config" : ".\\config\\nfc\\config.json", "assertions" : ".\\config\\nfc\\profile3.txt"}],
    "power_profile1" : [{"location" : ".\\modules\\power\\src\\auto_record.py", "config" : ".\\config\\power\\config1.json"}],
    "power_profile2" : [{"location" : ".\\modules\\power\\src\\auto_record.py", "config" : ".\\config\\power\\config2.json"}],
    "power_profile3" : [{"location" : ".\\modules\\power\\src\\auto_record.py", "config" : ".\\config\\power\\config3.json"}],
    "delay30" : [{"location" : ".\\modules\\delay\\src\\delay.py", "config" : ".\\config\\delay\\config30.json"}],
    "delay10" : [{"location" : ".\\modules\\delay\\src\\delay.py", "config" : ".\\config\\delay\\config10.json"}],
    "dataprocessing1" : [{"location" : ".\\modules\\power\\src\\data_processing.py", "config" : ".\\config\\power\\config1.json"}],
    "dataprocessing2" : [{"location" : ".\\modules\\power\\src\\data_processing.py", "config" : ".\\config\\power\\config2.json"}],
    "dataprocessing3" : [{"location" : ".\\modules\\power\\src\\data_processing.py", "config" : ".\\config\\power\\config3.json"}],
    "report1" : [{"location" : ".\\modules\\power\\src\\generate_report.py", "config" : ".\\config\\power\\config1.json"}],
    "report2" : [{"location" : ".\\modules\\power\\src\\generate_report.py", "config" : ".\\config\\power\\config2.json"}],
    "report3" : [{"location" : ".\\modules\\power\\src\\generate_report.py", "config" : ".\\config\\power\\config3.json"}],
    "power_on" : [{"location" : ".\\modules\\power\\src\\device_parameters.py", "config" : ".\\config\\power\\device_on.json"}],
    "power_off" : [{"location" : ".\\modules\\power\\src\\device_parameters.py", "config" : ".\\config\\power\\device_off.json"}]
}
